concept_verification/memory/cache_top.vcd
$date
     Jul 07, 2026       11:13:47
$end

$version
 SystemC 3.0.2-Accellera --- May 25 2026 07:32:46
$end

$timescale
     1 ps
$end

$scope module SystemC $end
$var wire    1  aaaaa  clk       $end
$var wire    1  aaaab  rst_n       $end
$var wire   32  aaaac  addr [31:0]  $end
$var wire   32  aaaad  rdata [31:0]  $end
$var wire    1  aaaae  w_enable       $end
$var wire   32  aaaaf  l1_state [31:0]  $end
$var wire   32  aaaag  l2_state [31:0]  $end
$var wire    1  aaaah  l2_call       $end
$var wire    1  aaaai  l2_finished       $end
$var wire    1  aaaaj  replacement       $end
$var wire    1  aaaak  l3_completed       $end
$var wire    1  aaaal  l2_evict_dirty       $end
$upscope $end
$enddefinitions  $end

$comment
All initial values are dumped below at time 0 sec = 0 timescale units.
$end

$dumpvars
1aaaaa
0aaaab
b0 aaaac
b0 aaaad
0aaaae
b0 aaaaf
b0 aaaag
0aaaah
0aaaai
0aaaaj
0aaaak
0aaaal
$end

#5000
0aaaaa

#10000
1aaaaa
b1 aaaaf

#15000
0aaaaa

#20000
1aaaaa

#25000
0aaaaa

#30000
1aaaaa
1aaaab

#35000
0aaaaa

#40000
1aaaaa
b1 aaaad
b10 aaaaf
1aaaah
1aaaak

#45000
0aaaaa

#50000
1aaaaa
b10 aaaag

#55000
0aaaaa

#60000
1aaaaa
b1 aaaag

#65000
0aaaaa

#70000
1aaaaa
1aaaai

#75000
0aaaaa

#80000
1aaaaa
b1 aaaaf

#85000
0aaaaa

#90000
1aaaaa
b11000000100000000100000000 aaaad
0aaaah

#95000
0aaaaa

#100000
1aaaaa
0aaaai

#105000
0aaaaa

#110000
1aaaaa

#115000
0aaaaa

#120000
1aaaaa

#125000
0aaaaa

#130000
1aaaaa

#135000
0aaaaa

#140000
1aaaaa
b100 aaaac

#145000
0aaaaa

#150000
1aaaaa
b111000001100000010100000100 aaaad

#155000
0aaaaa

#160000
1aaaaa

#165000
0aaaaa

#170000
1aaaaa
b1000 aaaac

#175000
0aaaaa

#180000
1aaaaa
b1011000010100000100100001000 aaaad

#185000
0aaaaa

#190000
1aaaaa

#195000
0aaaaa

#200000
1aaaaa
b1100 aaaac

#205000
0aaaaa

#210000
1aaaaa
b1111000011100000110100001100 aaaad

#215000
0aaaaa

#220000
1aaaaa

#225000
0aaaaa

#230000
1aaaaa
b10000 aaaac

#235000
0aaaaa

#240000
1aaaaa
b10011000100100001000100010000 aaaad

#245000
0aaaaa

#250000
1aaaaa

#255000
0aaaaa

#260000
1aaaaa
b10100 aaaac

#265000
0aaaaa

#270000
1aaaaa
b10111000101100001010100010100 aaaad

#275000
0aaaaa

#280000
1aaaaa

#285000
0aaaaa

#290000
1aaaaa
b11000 aaaac

#295000
0aaaaa

#300000
1aaaaa
b11011000110100001100100011000 aaaad

#305000
0aaaaa

#310000
1aaaaa

#315000
0aaaaa

#320000
1aaaaa
b11100 aaaac

#325000
0aaaaa

#330000
1aaaaa
b11111000111100001110100011100 aaaad

#335000
0aaaaa

#340000
1aaaaa

#345000
0aaaaa

#350000
1aaaaa
b100000 aaaac

#355000
0aaaaa

#360000
1aaaaa
b100011001000100010000100100000 aaaad

#365000
0aaaaa

#370000
1aaaaa

#375000
0aaaaa

#380000
1aaaaa
b100100 aaaac

#385000
0aaaaa

#390000
1aaaaa
b100111001001100010010100100100 aaaad

#395000
0aaaaa

#400000
1aaaaa

#405000
0aaaaa

#410000
1aaaaa
b101000 aaaac

#415000
0aaaaa

#420000
1aaaaa
b101011001010100010100100101000 aaaad

#425000
0aaaaa

#430000
1aaaaa

#435000
0aaaaa

#440000
1aaaaa
b101100 aaaac

#445000
0aaaaa

#450000
1aaaaa
b101111001011100010110100101100 aaaad

#455000
0aaaaa

#460000
1aaaaa

#465000
0aaaaa

#470000
1aaaaa
b110000 aaaac

#475000
0aaaaa

#480000
1aaaaa
b110011001100100011000100110000 aaaad

#485000
0aaaaa

#490000
1aaaaa

#495000
0aaaaa

#500000
1aaaaa
b110100 aaaac

#505000
0aaaaa

#510000
1aaaaa
b110111001101100011010100110100 aaaad

#515000
0aaaaa

#520000
1aaaaa

#525000
0aaaaa

#530000
1aaaaa
b111000 aaaac

#535000
0aaaaa

#540000
1aaaaa
b111011001110100011100100111000 aaaad

#545000
0aaaaa

#550000
1aaaaa

#555000
0aaaaa

#560000
1aaaaa
b111100 aaaac

#565000
0aaaaa

#570000
1aaaaa
b111111001111100011110100111100 aaaad

#575000
0aaaaa

#580000
1aaaaa

#585000
0aaaaa

#590000
1aaaaa
b1000000 aaaac

#595000
0aaaaa

#600000
1aaaaa
b1 aaaad
b10 aaaaf
1aaaah

#605000
0aaaaa

#610000
1aaaaa
1aaaai

#615000
0aaaaa

#620000
1aaaaa
b1 aaaaf

#625000
0aaaaa

#630000
1aaaaa
b1000011010000100100000101000000 aaaad
0aaaah

#635000
0aaaaa

#640000
1aaaaa
b1000100 aaaac
0aaaai

#645000
0aaaaa

#650000
1aaaaa
b1000111010001100100010101000100 aaaad

#655000
0aaaaa

#660000
1aaaaa

#665000
0aaaaa

#670000
1aaaaa
b1001000 aaaac

#675000
0aaaaa

#680000
1aaaaa
b1001011010010100100100101001000 aaaad

#685000
0aaaaa

#690000
1aaaaa

#695000
0aaaaa

#700000
1aaaaa
b1001100 aaaac

#705000
0aaaaa

#710000
1aaaaa
b1001111010011100100110101001100 aaaad

#715000
0aaaaa

#720000
1aaaaa

#725000
0aaaaa

#730000
1aaaaa
b1010000 aaaac

#735000
0aaaaa

#740000
1aaaaa
b1010011010100100101000101010000 aaaad

#745000
0aaaaa

#750000
1aaaaa

#755000
0aaaaa

#760000
1aaaaa
b1010100 aaaac

#765000
0aaaaa

#770000
1aaaaa
b1010111010101100101010101010100 aaaad

#775000
0aaaaa

#780000
1aaaaa

#785000
0aaaaa

#790000
1aaaaa
b1011000 aaaac

#795000
0aaaaa

#800000
1aaaaa
b1011011010110100101100101011000 aaaad

#805000
0aaaaa

#810000
1aaaaa

#815000
0aaaaa

#820000
1aaaaa
b1011100 aaaac

#825000
0aaaaa

#830000
1aaaaa
b1011111010111100101110101011100 aaaad

#835000
0aaaaa

#840000
1aaaaa

#845000
0aaaaa

#850000
1aaaaa
b1100000 aaaac

#855000
0aaaaa

#860000
1aaaaa
b1100011011000100110000101100000 aaaad

#865000
0aaaaa

#870000
1aaaaa

#875000
0aaaaa

#880000
1aaaaa
b1100100 aaaac

#885000
0aaaaa

#890000
1aaaaa
b1100111011001100110010101100100 aaaad

#895000
0aaaaa

#900000
1aaaaa

#905000
0aaaaa

#910000
1aaaaa
b1101000 aaaac

#915000
0aaaaa

#920000
1aaaaa
b1101011011010100110100101101000 aaaad

#925000
0aaaaa

#930000
1aaaaa

#935000
0aaaaa

#940000
1aaaaa
b1101100 aaaac

#945000
0aaaaa

#950000
1aaaaa
b1101111011011100110110101101100 aaaad

#955000
0aaaaa

#960000
1aaaaa

#965000
0aaaaa

#970000
1aaaaa
b1110000 aaaac

#975000
0aaaaa

#980000
1aaaaa
b1110011011100100111000101110000 aaaad

#985000
0aaaaa

#990000
1aaaaa

#995000
0aaaaa

#1000000
1aaaaa
b1110100 aaaac

#1005000
0aaaaa

#1010000
1aaaaa
b1110111011101100111010101110100 aaaad

#1015000
0aaaaa

#1020000
1aaaaa

#1025000
0aaaaa

#1030000
1aaaaa
b1111000 aaaac

#1035000
0aaaaa

#1040000
1aaaaa
b1111011011110100111100101111000 aaaad

#1045000
0aaaaa

#1050000
1aaaaa

#1055000
0aaaaa

#1060000
1aaaaa
b1111100 aaaac

#1065000
0aaaaa

#1070000
1aaaaa
b1111111011111100111110101111100 aaaad

#1075000
0aaaaa

#1080000
1aaaaa

#1085000
0aaaaa

#1090000
1aaaaa
b10000000 aaaac

#1095000
0aaaaa

#1100000
1aaaaa
b1 aaaad
b10 aaaaf
1aaaah

#1105000
0aaaaa

#1110000
1aaaaa
1aaaai

#1115000
0aaaaa

#1120000
1aaaaa
b1 aaaaf

#1125000
0aaaaa

#1130000
1aaaaa
b10000011100000101000000110000000 aaaad
0aaaah

#1135000
0aaaaa

#1140000
1aaaaa
b10000100 aaaac
0aaaai

#1145000
0aaaaa

#1150000
1aaaaa
b10000111100001101000010110000100 aaaad

#1155000
0aaaaa

#1160000
1aaaaa

#1165000
0aaaaa

#1170000
1aaaaa
b10001000 aaaac

#1175000
0aaaaa

#1180000
1aaaaa
b10001011100010101000100110001000 aaaad

#1185000
0aaaaa

#1190000
1aaaaa

#1195000
0aaaaa

#1200000
1aaaaa
b10001100 aaaac

#1205000
0aaaaa

#1210000
1aaaaa
b10001111100011101000110110001100 aaaad

#1215000
0aaaaa

#1220000
1aaaaa

#1225000
0aaaaa

#1230000
1aaaaa
b10010000 aaaac

#1235000
0aaaaa

#1240000
1aaaaa
b10010011100100101001000110010000 aaaad

#1245000
0aaaaa

#1250000
1aaaaa

#1255000
0aaaaa

#1260000
1aaaaa
b10010100 aaaac

#1265000
0aaaaa

#1270000
1aaaaa
b10010111100101101001010110010100 aaaad

#1275000
0aaaaa

#1280000
1aaaaa

#1285000
0aaaaa

#1290000
1aaaaa
b10011000 aaaac

#1295000
0aaaaa

#1300000
1aaaaa
b10011011100110101001100110011000 aaaad

#1305000
0aaaaa

#1310000
1aaaaa

#1315000
0aaaaa

#1320000
1aaaaa
b10011100 aaaac

#1325000
0aaaaa

#1330000
1aaaaa
b10011111100111101001110110011100 aaaad

#1335000
0aaaaa

#1340000
1aaaaa

#1345000
0aaaaa

#1350000
1aaaaa
b10100000 aaaac

#1355000
0aaaaa

#1360000
1aaaaa
b10100011101000101010000110100000 aaaad

#1365000
0aaaaa

#1370000
1aaaaa

#1375000
0aaaaa

#1380000
1aaaaa
b10100100 aaaac

#1385000
0aaaaa

#1390000
1aaaaa
b10100111101001101010010110100100 aaaad

#1395000
0aaaaa

#1400000
1aaaaa

#1405000
0aaaaa

#1410000
1aaaaa
b10101000 aaaac

#1415000
0aaaaa

#1420000
1aaaaa
b10101011101010101010100110101000 aaaad

#1425000
0aaaaa

#1430000
1aaaaa

#1435000
0aaaaa

#1440000
1aaaaa
b10101100 aaaac

#1445000
0aaaaa

#1450000
1aaaaa
b10101111101011101010110110101100 aaaad

#1455000
0aaaaa

#1460000
1aaaaa

#1465000
0aaaaa

#1470000
1aaaaa
b10110000 aaaac

#1475000
0aaaaa

#1480000
1aaaaa
b10110011101100101011000110110000 aaaad

#1485000
0aaaaa

#1490000
1aaaaa

#1495000
0aaaaa

#1500000
1aaaaa
b10110100 aaaac

#1505000
0aaaaa

#1510000
1aaaaa
b10110111101101101011010110110100 aaaad

#1515000
0aaaaa

#1520000
1aaaaa

#1525000
0aaaaa

#1530000
1aaaaa
b10111000 aaaac

#1535000
0aaaaa

#1540000
1aaaaa
b10111011101110101011100110111000 aaaad

#1545000
0aaaaa

#1550000
1aaaaa

#1555000
0aaaaa

#1560000
1aaaaa
b10111100 aaaac

#1565000
0aaaaa

#1570000
1aaaaa
b10111111101111101011110110111100 aaaad

#1575000
0aaaaa

#1580000
1aaaaa

#1585000
0aaaaa

#1590000
1aaaaa
b11000000 aaaac

#1595000
0aaaaa

#1600000
1aaaaa
b1 aaaad
b10 aaaaf
1aaaah

#1605000
0aaaaa

#1610000
1aaaaa
1aaaai

#1615000
0aaaaa

#1620000
1aaaaa
b1 aaaaf

#1625000
0aaaaa

#1630000
1aaaaa
b11000011110000101100000111000000 aaaad
0aaaah

#1635000
0aaaaa

#1640000
1aaaaa
b11000100 aaaac
0aaaai

#1645000
0aaaaa

#1650000
1aaaaa
b11000111110001101100010111000100 aaaad

#1655000
0aaaaa

#1660000
1aaaaa

#1665000
0aaaaa

#1670000
1aaaaa
b11001000 aaaac

#1675000
0aaaaa

#1680000
1aaaaa
b11001011110010101100100111001000 aaaad

#1685000
0aaaaa

#1690000
1aaaaa

#1695000
0aaaaa

#1700000
1aaaaa
b11001100 aaaac

#1705000
0aaaaa

#1710000
1aaaaa
b11001111110011101100110111001100 aaaad

#1715000
0aaaaa

#1720000
1aaaaa

#1725000
0aaaaa

#1730000
1aaaaa
b11010000 aaaac

#1735000
0aaaaa

#1740000
1aaaaa
b11010011110100101101000111010000 aaaad

#1745000
0aaaaa

#1750000
1aaaaa

#1755000
0aaaaa

#1760000
1aaaaa
b11010100 aaaac

#1765000
0aaaaa

#1770000
1aaaaa
b11010111110101101101010111010100 aaaad

#1775000
0aaaaa

#1780000
1aaaaa

#1785000
0aaaaa

#1790000
1aaaaa
b11011000 aaaac

#1795000
0aaaaa

#1800000
1aaaaa
b11011011110110101101100111011000 aaaad

#1805000
0aaaaa

#1810000
1aaaaa

#1815000
0aaaaa

#1820000
1aaaaa
b11011100 aaaac

#1825000
0aaaaa

#1830000
1aaaaa
b11011111110111101101110111011100 aaaad

#1835000
0aaaaa

#1840000
1aaaaa

#1845000
0aaaaa

#1850000
1aaaaa
b11100000 aaaac

#1855000
0aaaaa

#1860000
1aaaaa
b11100011111000101110000111100000 aaaad

#1865000
0aaaaa

#1870000
1aaaaa

#1875000
0aaaaa

#1880000
1aaaaa
b11100100 aaaac

#1885000
0aaaaa

#1890000
1aaaaa
b11100111111001101110010111100100 aaaad

#1895000
0aaaaa

#1900000
1aaaaa

#1905000
0aaaaa

#1910000
1aaaaa
b11101000 aaaac

#1915000
0aaaaa

#1920000
1aaaaa
b11101011111010101110100111101000 aaaad

#1925000
0aaaaa

#1930000
1aaaaa

#1935000
0aaaaa

#1940000
1aaaaa
b11101100 aaaac

#1945000
0aaaaa

#1950000
1aaaaa
b11101111111011101110110111101100 aaaad

#1955000
0aaaaa

#1960000
1aaaaa

#1965000
0aaaaa

#1970000
1aaaaa
b11110000 aaaac

#1975000
0aaaaa

#1980000
1aaaaa
b11110011111100101111000111110000 aaaad

#1985000
0aaaaa

#1990000
1aaaaa

#1995000
0aaaaa

#2000000
1aaaaa
b11110100 aaaac

#2005000
0aaaaa

#2010000
1aaaaa
b11110111111101101111010111110100 aaaad

#2015000
0aaaaa

#2020000
1aaaaa

#2025000
0aaaaa

#2030000
1aaaaa
b11111000 aaaac

#2035000
0aaaaa

#2040000
1aaaaa
b11111011111110101111100111111000 aaaad

#2045000
0aaaaa

#2050000
1aaaaa

#2055000
0aaaaa

#2060000
1aaaaa
b11111100 aaaac

#2065000
0aaaaa

#2070000
1aaaaa
b11111111111111101111110111111100 aaaad

#2075000
0aaaaa

#2080000
1aaaaa

#2085000
0aaaaa

#2090000
1aaaaa
b100000000 aaaac

#2095000
0aaaaa

#2100000
1aaaaa
b1 aaaad
b10 aaaaf
1aaaah

#2105000
0aaaaa

#2110000
1aaaaa
1aaaai

#2115000
0aaaaa

#2120000
1aaaaa
b1 aaaaf

#2125000
0aaaaa

#2130000
1aaaaa
b11000000100000000100000000 aaaad
0aaaah

#2135000
0aaaaa

#2140000
1aaaaa
b100000100 aaaac
0aaaai

#2145000
0aaaaa

#2150000
1aaaaa
b111000001100000010100000100 aaaad

#2155000
0aaaaa

#2160000
1aaaaa

#2165000
0aaaaa

#2170000
1aaaaa
b100001000 aaaac

#2175000
0aaaaa

#2180000
1aaaaa
b1011000010100000100100001000 aaaad

#2185000
0aaaaa

#2190000
1aaaaa

#2195000
0aaaaa

#2200000
1aaaaa
b100001100 aaaac

#2205000
0aaaaa

#2210000
1aaaaa
b1111000011100000110100001100 aaaad

#2215000
0aaaaa

#2220000
1aaaaa

#2225000
0aaaaa

#2230000
1aaaaa
b100010000 aaaac

#2235000
0aaaaa

#2240000
1aaaaa
b10011000100100001000100010000 aaaad

#2245000
0aaaaa

#2250000
1aaaaa

#2255000
0aaaaa

#2260000
1aaaaa
b100010100 aaaac

#2265000
0aaaaa

#2270000
1aaaaa
b10111000101100001010100010100 aaaad

#2275000
0aaaaa

#2280000
1aaaaa

#2285000
0aaaaa

#2290000
1aaaaa
b100011000 aaaac

#2295000
0aaaaa

#2300000
1aaaaa
b11011000110100001100100011000 aaaad

#2305000
0aaaaa

#2310000
1aaaaa

#2315000
0aaaaa

#2320000
1aaaaa
b100011100 aaaac

#2325000
0aaaaa

#2330000
1aaaaa
b11111000111100001110100011100 aaaad

#2335000
0aaaaa

#2340000
1aaaaa

#2345000
0aaaaa

#2350000
1aaaaa
b100100000 aaaac

#2355000
0aaaaa

#2360000
1aaaaa
b100011001000100010000100100000 aaaad

#2365000
0aaaaa

#2370000
1aaaaa

#2375000
0aaaaa

#2380000
1aaaaa
b100100100 aaaac

#2385000
0aaaaa

#2390000
1aaaaa
b100111001001100010010100100100 aaaad

#2395000
0aaaaa

#2400000
1aaaaa

#2405000
0aaaaa

#2410000
1aaaaa
b100101000 aaaac

#2415000
0aaaaa

#2420000
1aaaaa
b101011001010100010100100101000 aaaad

#2425000
0aaaaa

#2430000
1aaaaa

#2435000
0aaaaa

#2440000
1aaaaa
b100101100 aaaac

#2445000
0aaaaa

#2450000
1aaaaa
b101111001011100010110100101100 aaaad

#2455000
0aaaaa

#2460000
1aaaaa

#2465000
0aaaaa

#2470000
1aaaaa
b100110000 aaaac

#2475000
0aaaaa

#2480000
1aaaaa
b110011001100100011000100110000 aaaad

#2485000
0aaaaa

#2490000
1aaaaa

#2495000
0aaaaa

#2500000
1aaaaa
b100110100 aaaac

#2505000
0aaaaa

#2510000
1aaaaa
b110111001101100011010100110100 aaaad

#2515000
0aaaaa

#2520000
1aaaaa

#2525000
0aaaaa

#2530000
1aaaaa
b100111000 aaaac

#2535000
0aaaaa

#2540000
1aaaaa
b111011001110100011100100111000 aaaad

#2545000
0aaaaa

#2550000
1aaaaa

#2555000
0aaaaa

#2560000
1aaaaa
b100111100 aaaac

#2565000
0aaaaa

#2570000
1aaaaa
b111111001111100011110100111100 aaaad

#2575000
0aaaaa

#2580000
1aaaaa

#2585000
0aaaaa

#2590000
1aaaaa
b101000000 aaaac

#2595000
0aaaaa

#2600000
1aaaaa
b1 aaaad
b10 aaaaf
1aaaah

#2605000
0aaaaa

#2610000
1aaaaa
1aaaai

#2615000
0aaaaa

#2620000
1aaaaa
b1 aaaaf

#2625000
0aaaaa

#2630000
1aaaaa
b1000011010000100100000101000000 aaaad
0aaaah

#2635000
0aaaaa

#2640000
1aaaaa
b101000100 aaaac
0aaaai

#2645000
0aaaaa

#2650000
1aaaaa
b1000111010001100100010101000100 aaaad

#2655000
0aaaaa

#2660000
1aaaaa

#2665000
0aaaaa

#2670000
1aaaaa
b101001000 aaaac

#2675000
0aaaaa

#2680000
1aaaaa
b1001011010010100100100101001000 aaaad

#2685000
0aaaaa

#2690000
1aaaaa

#2695000
0aaaaa

#2700000
1aaaaa
b101001100 aaaac

#2705000
0aaaaa

#2710000
1aaaaa
b1001111010011100100110101001100 aaaad

#2715000
0aaaaa

#2720000
1aaaaa

#2725000
0aaaaa

#2730000
1aaaaa
b101010000 aaaac

#2735000
0aaaaa

#2740000
1aaaaa
b1010011010100100101000101010000 aaaad

#2745000
0aaaaa

#2750000
1aaaaa

#2755000
0aaaaa

#2760000
1aaaaa
b101010100 aaaac

#2765000
0aaaaa

#2770000
1aaaaa
b1010111010101100101010101010100 aaaad

#2775000
0aaaaa

#2780000
1aaaaa

#2785000
0aaaaa

#2790000
1aaaaa
b101011000 aaaac

#2795000
0aaaaa

#2800000
1aaaaa
b1011011010110100101100101011000 aaaad

#2805000
0aaaaa

#2810000
1aaaaa

#2815000
0aaaaa

#2820000
1aaaaa
b101011100 aaaac

#2825000
0aaaaa

#2830000
1aaaaa
b1011111010111100101110101011100 aaaad

#2835000
0aaaaa

#2840000
1aaaaa

#2845000
0aaaaa

#2850000
1aaaaa
b101100000 aaaac

#2855000
0aaaaa

#2860000
1aaaaa
b1100011011000100110000101100000 aaaad

#2865000
0aaaaa

#2870000
1aaaaa

#2875000
0aaaaa

#2880000
1aaaaa
b101100100 aaaac

#2885000
0aaaaa

#2890000
1aaaaa
b1100111011001100110010101100100 aaaad

#2895000
0aaaaa

#2900000
1aaaaa

#2905000
0aaaaa

#2910000
1aaaaa
b101101000 aaaac

#2915000
0aaaaa

#2920000
1aaaaa
b1101011011010100110100101101000 aaaad

#2925000
0aaaaa

#2930000
1aaaaa

#2935000
0aaaaa

#2940000
1aaaaa
b101101100 aaaac

#2945000
0aaaaa

#2950000
1aaaaa
b1101111011011100110110101101100 aaaad

#2955000
0aaaaa

#2960000
1aaaaa

#2965000
0aaaaa

#2970000
1aaaaa
b101110000 aaaac

#2975000
0aaaaa

#2980000
1aaaaa
b1110011011100100111000101110000 aaaad

#2985000
0aaaaa

#2990000
1aaaaa

#2995000
0aaaaa

#3000000
1aaaaa
b101110100 aaaac

#3005000
0aaaaa

#3010000
1aaaaa
b1110111011101100111010101110100 aaaad

#3015000
0aaaaa

#3020000
1aaaaa

#3025000
0aaaaa

#3030000
1aaaaa
b101111000 aaaac

#3035000
0aaaaa

#3040000
1aaaaa
b1111011011110100111100101111000 aaaad

#3045000
0aaaaa

#3050000
1aaaaa

#3055000
0aaaaa

#3060000
1aaaaa
b101111100 aaaac

#3065000
0aaaaa

#3070000
1aaaaa
b1111111011111100111110101111100 aaaad

#3075000
0aaaaa

#3080000
1aaaaa

#3085000
0aaaaa

#3090000
1aaaaa
b110000000 aaaac

#3095000
0aaaaa

#3100000
1aaaaa
b1 aaaad
b10 aaaaf
1aaaah

#3105000
0aaaaa

#3110000
1aaaaa
1aaaai

#3115000
0aaaaa

#3120000
1aaaaa
b1 aaaaf

#3125000
0aaaaa

#3130000
1aaaaa
b10000011100000101000000110000000 aaaad
0aaaah

#3135000
0aaaaa

#3140000
1aaaaa
b110000100 aaaac
0aaaai

#3145000
0aaaaa

#3150000
1aaaaa
b10000111100001101000010110000100 aaaad

#3155000
0aaaaa

#3160000
1aaaaa

#3165000
0aaaaa

#3170000
1aaaaa
b110001000 aaaac

#3175000
0aaaaa

#3180000
1aaaaa
b10001011100010101000100110001000 aaaad

#3185000
0aaaaa

#3190000
1aaaaa

#3195000
0aaaaa

#3200000
1aaaaa
b110001100 aaaac

#3205000
0aaaaa

#3210000
1aaaaa
b10001111100011101000110110001100 aaaad

#3215000
0aaaaa

#3220000
1aaaaa

#3225000
0aaaaa

#3230000
1aaaaa
b110010000 aaaac

#3235000
0aaaaa

#3240000
1aaaaa
b10010011100100101001000110010000 aaaad

#3245000
0aaaaa

#3250000
1aaaaa

#3255000
0aaaaa

#3260000
1aaaaa
b110010100 aaaac

#3265000
0aaaaa

#3270000
1aaaaa
b10010111100101101001010110010100 aaaad

#3275000
0aaaaa

#3280000
1aaaaa

#3285000
0aaaaa

#3290000
1aaaaa
b110011000 aaaac

#3295000
0aaaaa

#3300000
1aaaaa
b10011011100110101001100110011000 aaaad

#3305000
0aaaaa

#3310000
1aaaaa

#3315000
0aaaaa

#3320000
1aaaaa
b110011100 aaaac

#3325000
0aaaaa

#3330000
1aaaaa
b10011111100111101001110110011100 aaaad

#3335000
0aaaaa

#3340000
1aaaaa

#3345000
0aaaaa

#3350000
1aaaaa
b110100000 aaaac

#3355000
0aaaaa

#3360000
1aaaaa
b10100011101000101010000110100000 aaaad

#3365000
0aaaaa

#3370000
1aaaaa

#3375000
0aaaaa

#3380000
1aaaaa
b110100100 aaaac

#3385000
0aaaaa

#3390000
1aaaaa
b10100111101001101010010110100100 aaaad

#3395000
0aaaaa

#3400000
1aaaaa

#3405000
0aaaaa

#3410000
1aaaaa
b110101000 aaaac

#3415000
0aaaaa

#3420000
1aaaaa
b10101011101010101010100110101000 aaaad

#3425000
0aaaaa

#3430000
1aaaaa

#3435000
0aaaaa

#3440000
1aaaaa
b110101100 aaaac

#3445000
0aaaaa

#3450000
1aaaaa
b10101111101011101010110110101100 aaaad

#3455000
0aaaaa

#3460000
1aaaaa

#3465000
0aaaaa

#3470000
1aaaaa
b110110000 aaaac

#3475000
0aaaaa

#3480000
1aaaaa
b10110011101100101011000110110000 aaaad

#3485000
0aaaaa

#3490000
1aaaaa

#3495000
0aaaaa

#3500000
1aaaaa
b110110100 aaaac

#3505000
0aaaaa

#3510000
1aaaaa
b10110111101101101011010110110100 aaaad

#3515000
0aaaaa

#3520000
1aaaaa

#3525000
0aaaaa

#3530000
1aaaaa
b110111000 aaaac

#3535000
0aaaaa

#3540000
1aaaaa
b10111011101110101011100110111000 aaaad

#3545000
0aaaaa

#3550000
1aaaaa

#3555000
0aaaaa

#3560000
1aaaaa
b110111100 aaaac

#3565000
0aaaaa

#3570000
1aaaaa
b10111111101111101011110110111100 aaaad

#3575000
0aaaaa

#3580000
1aaaaa

#3585000
0aaaaa

#3590000
1aaaaa
b111000000 aaaac

#3595000
0aaaaa

#3600000
1aaaaa
b1 aaaad
b10 aaaaf
1aaaah

#3605000
0aaaaa

#3610000
1aaaaa
1aaaai

#3615000
0aaaaa

#3620000
1aaaaa
b1 aaaaf

#3625000
0aaaaa

#3630000
1aaaaa
b11000011110000101100000111000000 aaaad
0aaaah

#3635000
0aaaaa

#3640000
1aaaaa
b111000100 aaaac
0aaaai

#3645000
0aaaaa

#3650000
1aaaaa
b11000111110001101100010111000100 aaaad

#3655000
0aaaaa

#3660000
1aaaaa

#3665000
0aaaaa

#3670000
1aaaaa
b111001000 aaaac

#3675000
0aaaaa

#3680000
1aaaaa
b11001011110010101100100111001000 aaaad

#3685000
0aaaaa

#3690000
1aaaaa

#3695000
0aaaaa

#3700000
1aaaaa
b111001100 aaaac

#3705000
0aaaaa

#3710000
1aaaaa
b11001111110011101100110111001100 aaaad

#3715000
0aaaaa

#3720000
1aaaaa

#3725000
0aaaaa

#3730000
1aaaaa
b111010000 aaaac

#3735000
0aaaaa

#3740000
1aaaaa
b11010011110100101101000111010000 aaaad

#3745000
0aaaaa

#3750000
1aaaaa

#3755000
0aaaaa

#3760000
1aaaaa
b111010100 aaaac

#3765000
0aaaaa

#3770000
1aaaaa
b11010111110101101101010111010100 aaaad

#3775000
0aaaaa

#3780000
1aaaaa

#3785000
0aaaaa

#3790000
1aaaaa
b111011000 aaaac

#3795000
0aaaaa

#3800000
1aaaaa
b11011011110110101101100111011000 aaaad

#3805000
0aaaaa

#3810000
1aaaaa

#3815000
0aaaaa

#3820000
1aaaaa
b111011100 aaaac

#3825000
0aaaaa

#3830000
1aaaaa
b11011111110111101101110111011100 aaaad

#3835000
0aaaaa

#3840000
1aaaaa

#3845000
0aaaaa

#3850000
1aaaaa
b111100000 aaaac

#3855000
0aaaaa

#3860000
1aaaaa
b11100011111000101110000111100000 aaaad

#3865000
0aaaaa

#3870000
1aaaaa

#3875000
0aaaaa

#3880000
1aaaaa
b111100100 aaaac

#3885000
0aaaaa

#3890000
1aaaaa
b11100111111001101110010111100100 aaaad

#3895000
0aaaaa

#3900000
1aaaaa

#3905000
0aaaaa

#3910000
1aaaaa
b111101000 aaaac

#3915000
0aaaaa

#3920000
1aaaaa
b11101011111010101110100111101000 aaaad

#3925000
0aaaaa

#3930000
1aaaaa

#3935000
0aaaaa

#3940000
1aaaaa
b111101100 aaaac

#3945000
0aaaaa

#3950000
1aaaaa
b11101111111011101110110111101100 aaaad

#3955000
0aaaaa

#3960000
1aaaaa

#3965000
0aaaaa

#3970000
1aaaaa
b111110000 aaaac

#3975000
0aaaaa

#3980000
1aaaaa
b11110011111100101111000111110000 aaaad

#3985000
0aaaaa

#3990000
1aaaaa

#3995000
0aaaaa

#4000000
1aaaaa
b111110100 aaaac

#4005000
0aaaaa

#4010000
1aaaaa
b11110111111101101111010111110100 aaaad

#4015000
0aaaaa

#4020000
1aaaaa

#4025000
0aaaaa

#4030000
1aaaaa
b111111000 aaaac

#4035000
0aaaaa

#4040000
1aaaaa
b11111011111110101111100111111000 aaaad

#4045000
0aaaaa

#4050000
1aaaaa

#4055000
0aaaaa

#4060000
1aaaaa
b111111100 aaaac

#4065000
0aaaaa

#4070000
1aaaaa
b11111111111111101111110111111100 aaaad

#4075000
0aaaaa

#4080000
1aaaaa

#4085000
0aaaaa

#4090000
1aaaaa
b0 aaaac

#4095000
0aaaaa

#4100000
1aaaaa
b11000000100000000100000000 aaaad

#4105000
0aaaaa

#4110000
1aaaaa

#4115000
0aaaaa

#4120000
1aaaaa
b100 aaaac

#4125000
0aaaaa

#4130000
1aaaaa
b111000001100000010100000100 aaaad

#4135000
0aaaaa

#4140000
1aaaaa

#4145000
0aaaaa

#4150000
1aaaaa
b1000 aaaac

#4155000
0aaaaa

#4160000
1aaaaa
b1011000010100000100100001000 aaaad

#4165000
0aaaaa

#4170000
1aaaaa

#4175000
0aaaaa

#4180000
1aaaaa
b1100 aaaac

#4185000
0aaaaa

#4190000
1aaaaa
b1111000011100000110100001100 aaaad

#4195000
0aaaaa

#4200000
1aaaaa

#4205000
0aaaaa

#4210000
1aaaaa
b10000 aaaac

#4215000
0aaaaa

#4220000
1aaaaa
b10011000100100001000100010000 aaaad

#4225000
0aaaaa

#4230000
1aaaaa

#4235000
0aaaaa

#4240000
1aaaaa
b10100 aaaac

#4245000
0aaaaa

#4250000
1aaaaa
b10111000101100001010100010100 aaaad

#4255000
0aaaaa

#4260000
1aaaaa

#4265000
0aaaaa

#4270000
1aaaaa
b11000 aaaac

#4275000
0aaaaa

#4280000
1aaaaa
b11011000110100001100100011000 aaaad

#4285000
0aaaaa

#4290000
1aaaaa

#4295000
0aaaaa

#4300000
1aaaaa
b11100 aaaac

#4305000
0aaaaa

#4310000
1aaaaa
b11111000111100001110100011100 aaaad

#4315000
0aaaaa

#4320000
1aaaaa

#4325000
0aaaaa

#4330000
1aaaaa
b100000 aaaac

#4335000
0aaaaa

#4340000
1aaaaa
b100011001000100010000100100000 aaaad

#4345000
0aaaaa

#4350000
1aaaaa

#4355000
0aaaaa

#4360000
1aaaaa
b100100 aaaac

#4365000
0aaaaa

